{
	"llapis":{
			"attributes":
			{
				"collectable": true,
				"type":["writting_tool"]
			}
	},
	"llibre":{
			"attributes":
			{
				"collectable": true,
				"weight":1.0
			}
	},
	"goma":{
			"attributes":
			{
				"collectable": true
			}
	},
	"grapa":{
			"attributes":
			{
				"collectable": true,
				"type":["tool"]
			}
	},
	"tornillo":{
			"attributes":
			{
				"collectable": true,
				"type":["tool"]
			}
	},
	"cel.lo":{
			"attributes":
			{
				"collectable": true,
				"type":["gluing_tool"]
			}
	},
	"cola":{
			"attributes":
			{
				"collectable": true,
				"type":["gluing_tool"]
			}
	},
	"clau":{
			"attributes":
			{
				"collectable": true,
				"type":["key"]
			}
	},
	"clau_ferro":{
			"attributes":
			{
				"collectable": true,
				"type":["key"]
			}
	}
}